…
Tibble
------

A tibble is a modern reimagining of the data frame.

It is particularly useful for large datasets because it only prints the
first few rows. It helps you confront problems earlier leading to a
cleaner code.

    # Converting a df to a tibble
    biopsy<-tbl_df(biopsy)
    biopsy

    ## # A tibble: 699 x 11
    ##    ID         V1    V2    V3    V4    V5    V6    V7    V8    V9 class    
    ##  * <chr>   <int> <int> <int> <int> <int> <int> <int> <int> <int> <fct>    
    ##  1 1000025     5     1     1     1     2     1     3     1     1 benign   
    ##  2 1002945     5     4     4     5     7    10     3     2     1 benign   
    ##  3 1015425     3     1     1     1     2     2     3     1     1 benign   
    ##  4 1016277     6     8     8     1     3     4     3     7     1 benign   
    ##  5 1017023     4     1     1     3     2     1     3     1     1 benign   
    ##  6 1017122     8    10    10     8     7    10     9     7     1 malignant
    ##  7 1018099     1     1     1     1     2    10     3     1     1 benign   
    ##  8 1018561     2     1     2     1     2     1     3     1     1 benign   
    ##  9 1033078     2     1     1     1     2     1     1     1     5 benign   
    ## 10 1033078     4     2     1     1     2     1     2     1     1 benign   
    ## # ... with 689 more rows
…
All the dplyr functions work on a copy of the data and return the
modified copy. They do not change the original data frame. We need to
save the modified copy if we want to access it afterwards.

Rename
------

The names of the columns in our data are very vague and do not give us
the meaning of the values in that column. We need to change the names of
the column so that the viewer gets a sense of the values it is referring
to.

    rename(biopsy,thickness=V1,cell_size=V2,cell_shape=V3,marg_adhesion=V4,epithelial_cell_size=V5,bare_nuclei=V6,chromatin=V7,norm_nucleoli=V8,mitoses=V9)

    ## # A tibble: 699 x 11
    ##    ID    thickness cell_size cell_shape marg_adhesion epithelial_cell…
    ##  * <chr>     <int>     <int>      <int>         <int>            <int>
    ##  1 1000…         5         1          1             1                2
    ##  2 1002…         5         4          4             5                7
    ##  3 1015…         3         1          1             1                2
    ##  4 1016…         6         8          8             1                3
    ##  5 1017…         4         1          1             3                2
    ##  6 1017…         8        10         10             8                7
    ##  7 1018…         1         1          1             1                2
    ##  8 1018…         2         1          2             1                2
    ##  9 1033…         2         1          1             1                2
    ## 10 1033…         4         2          1             1                2
    ## # ... with 689 more rows, and 5 more variables: bare_nuclei <dbl>,
    ## #   chromatin <int>, norm_nucleoli <int>, mitoses <int>, class <fct>
…
Arrange
-------

It reorders the rows of the data based on their contents in the
ascending order by default.

The doctors would want to view the data in the order of the cell size of
the tumor.

    #arrange in the order of V2:cell size
    arrange(biopsy_new,cell_size)

    ## # A tibble: 186 x 9
    ##    ID    thickness cell_size cell_shape marg_adhesion epithelial_cell…
    ##    <chr>     <int>     <int>      <int>         <int>            <int>
    ##  1 1050…         6         1          1             1                2
    ##  2 1204…         6         1          1             1                2
    ##  3 1223…         6         1          3             1                2
    ##  4 5435…         6         1          3             1                4
    ##  5 63375         9         1          2             6                4
    ##  6 7529…        10         1          1             1                2
    ##  7 1276…         6         1          1             3                2
    ##  8 1238…         6         1          1             3                2
    ##  9 1257…         6         1          1             1                1
    ## 10 1224…         6         1          1             1                2
    ## # ... with 176 more rows, and 3 more variables: bare_nuclei <dbl>,
    ## #   norm_nucleoli <int>, class <fct>

This shows the data in increasing order of the cell size.

To arrange the rows in decreasing order of V2, we add the desc()
function to the variable before passing it to the arrange() function.

    #arrange in the order of V2:cell size in decreasing order
    arrange(biopsy_new,desc(cell_size))

    ## # A tibble: 186 x 9
    ##    ID    thickness cell_size cell_shape marg_adhesion epithelial_cell…
    ##    <chr>     <int>     <int>      <int>         <int>            <int>
    ##  1 1017…         8        10         10             8                7
    ##  2 1080…        10        10         10             8                6
    ##  3 1100…         6        10         10             2                8
    ##  4 1103…        10        10         10             4                8
    ##  5 1112…         8        10         10             1                3
    ##  6 1116…         9        10         10             1               10
    ##  7 1123…         6        10          2             8               10
    ##  8 1168…        10        10         10            10               10
    ##  9 1170…        10        10         10             8                2
    ## 10 1173…        10        10         10             3               10
    ## # ... with 176 more rows, and 3 more variables: bare_nuclei <dbl>,
    ## #   norm_nucleoli <int>, class <fct>
…
In our example, key="Tumor\_Atrributes" and value='Score'. You can also
specify the columns that you do not want to be tidied, i.e. ID and
class.

    #Tidy Data
    library(tidyr)
    tidy_df <- biopsy_new %>% gather(key = "Tumor_Attributes", value = "Score", -ID, -class)

    tidy_df

    ## # A tibble: 1,302 x 4
    ##    ID      class     Tumor_Attributes Score
    ##    <chr>   <fct>     <chr>            <dbl>
    ##  1 1017122 malignant thickness            8
    ##  2 1073960 malignant thickness           10
    ##  3 1080185 malignant thickness           10
    ##  4 1100524 malignant thickness            6
    ##  5 1100524 malignant thickness            6
    ##  6 1103608 malignant thickness           10
    ##  7 1112209 malignant thickness            8
    ##  8 1116116 malignant thickness            9
    ##  9 1116116 malignant thickness            9
    ## 10 1168736 malignant thickness           10
    ## # ... with 1,292 more rows
